Capítulo 8 Patrones de asociación | Analitica de Datos Industriales Segunda Edición
…
8.18 Información sesión

Este comando te permite ver como estás de memoria y cpu, así como los paquetes que tienes cargados en la sesión.

sesion_info <- devtools::session_info()
dplyr::select(
  tibble::as_tibble(sesion_info$packages),
  c(package, loadedversion, source)
)
#> # A tibble: 93 × 3
#>    package    loadedversion source        
#>    <chr>      <chr>         <chr>         
#>  1 arules     1.6-6         CRAN (R 4.3.3)
#>  2 arulesViz  1.5.4         CRAN (R 4.3.3)
#>  3 bit        4.0.5         CRAN (R 4.2.2)
#>  4 bit64      4.0.5         CRAN (R 4.0.2)
#>  5 bookdown   0.44          CRAN (R 4.3.3)
#>  6 bslib      0.6.1         CRAN (R 4.3.2)
#>  7 cachem     1.0.8         CRAN (R 4.3.0)
#>  8 cli        3.6.2         CRAN (R 4.3.2)
#>  9 colorspace 2.1-0         CRAN (R 4.2.2)
#> 10 crayon     1.5.2         CRAN (R 4.2.2)
#> # ℹ 83 more rows
…
